^C:\USERS\USER\SOURCE\REPOS\OP-LAB-1\OP-LAB-1.2\X64\DEBUG\MAIN2.OBJ
C:\USERS\USER\SOURCE\REPOS\OP-LAB-1\OP-LAB-1.2\X64\DEBUG\OP-LAB-1.2.ILK
C:\USERS\USER\SOURCE\REPOS\OP-LAB-1\X64\DEBUG\OP-LAB-1.2.EXE
C:\USERS\USER\SOURCE\REPOS\OP-LAB-1\X64\DEBUG\OP-LAB-1.2.PDB
